_I2C1_DO_SEND_RESTART_READ 8A9 0 CODE 0
__end_of_I2C1_DO_SEND_RESTART 8B8 0 CODE 0
___lldiv@counter 7D 0 COMMON 1
__Hstringtext14 0 0 ABS 0
_osc_calibrate_val 122 0 BANK2 1
__Lstringtext14 0 0 ABS 0
rd1RegCompleteHandler@ptr 79 0 COMMON 1
rd2RegCompleteHandler@ptr 79 0 COMMON 1
__end_of_VL53L1X_getMeasurementTimingBudget 1000 0 CODE 0
wr1RegCompleteHandler@ptr 79 0 COMMON 1
__end_of_VL53L1X_setMeasurementTimingBudget 4DE 0 CODE 0
wr2RegCompleteHandler@ptr 79 0 COMMON 1
wr4RegCompleteHandler@ptr 79 0 COMMON 1
__pstringtext14 10C7 0 STRCODE 0
__end_of_I2C1_DO_TX_EMPTY B5D 0 CODE 0
_PR2 1E 0 ABS 0
__S0 1102 0 ABS 0
__S1 124 0 ABS 0
__S2 0 0 ABS 0
__S3 0 0 ABS 0
__end_of_I2C1_DO_SEND_RESTART_READ 8AE 0 CODE 0
_SSP1STATbits 214 0 ABS 0
__Hintentry 2 0 CODE 0
__Lintentry 2 0 CODE 0
__size_of_I2C1_MasterStartRx 0 0 ABS 0
__size_of_VL53L1X_readResults 0 0 ABS 0
VL53L1X_calcMacroPeriod@vcsel_period 2C 0 BANK0 1
_iid 120 0 BANK2 1
_I2C1_MasterIsNack 8D6 0 CODE 0
I2C1_Write1ByteRegister@reg 2D 0 BANK0 1
__Hstringtext17 0 0 ABS 0
__Lstringtext17 0 0 ABS 0
_PMD0 911 0 ABS 0
_PMD1 912 0 ABS 0
_VL53L1X_encodeTimeout D55 0 CODE 0
_PMD2 913 0 ABS 0
_PMD3 914 0 ABS 0
_PMD4 915 0 ABS 0
__size_of_I2C1_SetCallback 0 0 ABS 0
_PMD5 916 0 ABS 0
__pstringtext17 10EC 0 STRCODE 0
_TMR2 1D 0 ABS 0
_I2C1_MasterClose 87B 0 CODE 0
_I2C1_MasterSetIrq 890 0 CODE 0
_LATA 10C 0 ABS 0
__end_of_I2C1_CallbackReturnStop 876 0 CODE 0
_LATC 10E 0 ABS 0
_WPUA 20C 0 ABS 0
_WPUC 20E 0 ABS 0
__end_of_PWM5_LoadDutyValue 99A 0 CODE 0
__size_of_wr1RegCompleteHandler 0 0 ABS 0
rdBlkRegCompleteHandler@ptr 79 0 COMMON 1
__end_of_PIN_MANAGER_Initialize AA7 0 CODE 0
I2C1_Write2ByteRegister@reg 3E 0 BANK0 1
_I2C1_DO_SEND_ADR_READ 919 0 CODE 0
_main BF9 0 CODE 0
_VL53L1X_read 179 0 CODE 0
__size_of_I2C1_SetDataCompleteCallback 0 0 ABS 0
_VL53L1X_readResults 971 0 CODE 0
___sp 0 0 STACK 2
btemp 7E 0 ABS 0
__size_of_I2C1_MasterIsNack 0 0 ABS 0
start 2 0 CODE 0
_I2C1_SetBuffer 962 0 CODE 0
_I2C1_Write1ByteRegister CC5 0 CODE 0
__size_of_I2C1_ReadDataBlock 0 0 ABS 0
_I2C1_MasterWaitForEvent 8DC 0 CODE 0
__size_of_I2C1_Open 0 0 ABS 0
?_VL53L1X_decodeTimeout 2E 0 BANK0 1
_TRISA 8C 0 ABS 0
_TRISC 8E 0 ABS 0
reset_vec 0 0 CODE 0
_OSCEN 91D 0 ABS 0
__size_of_I2C1_Initialize 0 0 ABS 0
_T2CON 1F 0 ABS 0
I2C1_Write4ByteRegister@reg 25 0 BANK0 1
wtemp0 7E 0 ABS 0
__size_of_I2C1_MasterStart 0 0 ABS 0
__size_of___omul 0 0 ABS 0
_VL53L1X_setDistanceMode 4DE 0 CODE 0
__Hconfig 800B 0 CONFIG 4
__Lconfig 0 0 CONFIG 4
__end_of_I2C1_DO_RX CC5 0 CODE 0
__end_of_I2C1_DO_TX EEC 0 CODE 0
_fast_osc_frequency E4 0 BANK1 1
I2C1_MasterOperation@read 23 0 BANK0 1
__end_of_wr1RegCompleteHandler A08 0 CODE 0
__end_of_I2C1_SetAddressNackCallback 962 0 CODE 0
__Hstringtext1 0 0 ABS 0
__Lstringtext1 0 0 ABS 0
__pstringtext1 1000 0 STRCODE 0
_I2C1_Write2ByteRegister E3D 0 CODE 0
__end_of_VL53L1X_setDistanceMode 649 0 CODE 0
I2C1_SetDataCompleteCallback@cb 75 0 COMMON 1
__Hbigram 0 0 ABS 0
__Lbigram 0 0 ABS 0
__Hram 0 0 ABS 0
__Lram 0 0 ABS 0
?_VL53L1X_read 36 0 BANK0 1
__size_of_wr2RegCompleteHandler 0 0 ABS 0
VL53L1X_setMeasurementTimingBudget@budget_us 47 0 BANK0 1
__end_of_I2C1_DO_IDLE 8A9 0 CODE 0
__end_of_I2C1_MasterOpen 955 0 CODE 0
__end_of_I2C1_DO_RCEN 8EF 0 CODE 0
__Hstringtext7 0 0 ABS 0
__Lstringtext7 0 0 ABS 0
__end_of_TMR2_Initialize 8FF 0 CODE 0
__pstringtext7 1040 0 STRCODE 0
__end_of_wr2RegCompleteHandler A1E 0 CODE 0
__end_of_I2C1_MasterSendTxData 8A4 0 CODE 0
VL53L1X_timeoutMicrosecondsToMclks@macro_period_us 24 0 BANK0 1
__Hfunctab 0 0 ENTRY 0
__Lfunctab 0 0 ENTRY 0
__end_of_WDT_Initialize 897 0 CODE 0
_VL53L1X_getMeasurementTimingBudget FA0 0 CODE 0
__size_of_I2C1_MasterClearIrq 0 0 ABS 0
__end_of_I2C1_MasterStop 88A 0 CODE 0
__end_of_TimingGuard 10FE 0 STRCODE 0
_I2C1_DO_SEND_ADR_WRITE 8FF 0 CODE 0
__Hcommon 0 0 ABS 0
__Lcommon 0 0 ABS 0
_PIE1bits 91 0 ABS 0
__Heeprom_data 0 0 EEDATA 3
__Leeprom_data 0 0 EEDATA 3
_PIR1bits 11 0 ABS 0
_I2C1_DO_SEND_STOP 8B8 0 CODE 0
_VL53L1X_setupManualCalibration 27 0 CODE 0
__size_of_I2C1_MasterSendNack 0 0 ABS 0
_I2C1_SetCallback A55 0 CODE 0
___int_sp 0 0 STACK 2
_ANSELA 18C 0 ABS 0
I2C1_ReadDataBlock@reg 25 0 BANK0 1
_ODCONA 28C 0 ABS 0
?___lldiv 70 0 COMMON 1
_ANSELC 18E 0 ABS 0
_ODCONC 28E 0 ABS 0
I2C1_ReadDataBlock@len 28 0 BANK0 1
_INLVLA 38C 0 ABS 0
__end_of_I2C1_CallbackReturnReset 878 0 CODE 0
VL53L1X_decodeTimeout@reg_val 2E 0 BANK0 1
_INLVLC 38E 0 ABS 0
I2C1_MasterOperation@returnValue 24 0 BANK0 1
_rdBlkRegCompleteHandler A1E 0 CODE 0
_distance_mode CE 0 BANK1 1
__Habs1 0 0 ABS 0
__Labs1 0 0 ABS 0
__end_of_I2C1_DO_RESET 8D1 0 CODE 0
_WDTCON 97 0 ABS 0
__Hsfr0 0 0 ABS 0
__Lsfr0 0 0 ABS 0
__size_of_VL53L1X_setDistanceMode 0 0 ABS 0
__Hsfr1 0 0 ABS 0
__Lsfr1 0 0 ABS 0
__Hsfr2 0 0 ABS 0
__Lsfr2 0 0 ABS 0
_I2C1_Write4ByteRegister 2BA 0 CODE 0
__Hsfr3 0 0 ABS 0
_OSCFRQ 91F 0 ABS 0
__Lsfr3 0 0 ABS 0
_RC0PPS EA0 0 ABS 0
_RC1PPS EA1 0 ABS 0
_RC2PPS EA2 0 ABS 0
__Hsfr4 0 0 ABS 0
VL53L1X_startContinuous@period_ms 44 0 BANK0 1
__Lsfr4 0 0 ABS 0
__Hsfr5 0 0 ABS 0
__Lsfr5 0 0 ABS 0
__Hsfr6 0 0 ABS 0
__Lsfr6 0 0 ABS 0
__Hsfr7 0 0 ABS 0
__Lsfr7 0 0 ABS 0
__Hsfr8 0 0 ABS 0
__Lsfr8 0 0 ABS 0
__Hsfr9 0 0 ABS 0
__Lsfr9 0 0 ABS 0
__size_of_I2C1_MasterSendAck 0 0 ABS 0
I2C1_ReadDataBlock@data_addr 27 0 BANK0 1
__size_of_I2C1_DO_SEND_ADR_READ 0 0 ABS 0
_I2C1_DO_RESET 8CC 0 CODE 0
PWM5_LoadDutyValue@dutyValue 70 0 COMMON 1
_I2C1_Open BBF 0 CODE 0
I2C1_MasterSendTxData@data 70 0 COMMON 1
VL53L1X_setMeasurementTimingBudget@phasecal_timeout_mclks 4F 0 BANK0 1
__end_of_I2C1_MasterStartRx 88D 0 CODE 0
___stackhi 27EF 0 ABS 0
__end_of_wr4RegCompleteHandler 9C6 0 CODE 0
main@dist_mm EC 0 BANK1 1
_I2C1_MasterClearIrq 878 0 CODE 0
_I2C1_MasterEnableRestart 884 0 CODE 0
__end_of_TimingGuard@vl53l1x$F2165 10FA 0 STRCODE 0
I2C1_Open@address 71 0 COMMON 1
__size_of_I2C1_DO_RX_NACK_STOP 0 0 ABS 0
_I2C1_CallbackReturnReset 876 0 CODE 0
I2C1_SetAddressNackCallback@cb 75 0 COMMON 1
_I2C1_MasterGetRxData 88D 0 CODE 0
__size_of_I2C1_MasterDisableIrq 0 0 ABS 0
__size_of_I2C1_MasterFsm 0 0 ABS 0
__Hcode 0 0 ABS 0
__Lcode 0 0 ABS 0
_VL53L1X_timeoutMicrosecondsToMclks C3A 0 CODE 0
__end_of_I2C1_Poller 948 0 CODE 0
__HcstackBANK0 0 0 ABS 0
__LcstackBANK0 0 0 ABS 0
_I2C1_DO_TX_EMPTY B2E 0 CODE 0
__pcstackBANK0 20 0 BANK0 1
__size_of_I2C1_MasterGetRxData 0 0 ABS 0
__Hstringtext2 0 0 ABS 0
__Lstringtext2 0 0 ABS 0
___lmul B8C 0 CODE 0
_I2C1_MasterStart 881 0 CODE 0
___omul D9F 0 CODE 0
__Hinit 2 0 CODE 0
__Linit 2 0 CODE 0
__pstringtext2 10F6 0 STRCODE 0
_VL53L1X_setMeasurementTimingBudget 37D 0 CODE 0
__end_of_main C3A 0 CODE 0
__end_of_I2C1_DO_RX_ACK 8C2 0 CODE 0
__size_of_VL53L1X_calcMacroPeriod 0 0 ABS 0
__Htext 0 0 ABS 0
__Ltext 0 0 ABS 0
_I2C1_MasterStartRx 88A 0 CODE 0
___lmul@multiplier 70 0 COMMON 1
___omul@multiplier 20 0 BANK0 1
__size_of_wr4RegCompleteHandler 0 0 ABS 0
__end_of_I2C1_MasterWaitForEvent 8E2 0 CODE 0
__size_of_I2C1_DO_SEND_RESTART 0 0 ABS 0
_rd1RegCompleteHandler 9C6 0 CODE 0
_rd2RegCompleteHandler 9DC 0 CODE 0
end_of_initialization 7FD 0 CODE 0
_wr1RegCompleteHandler 9F2 0 CODE 0
_wr2RegCompleteHandler A08 0 CODE 0
_wr4RegCompleteHandler 9B0 0 CODE 0
__Hstringtext12 0 0 ABS 0
__end_of_I2C1_MasterSendNack 89B 0 CODE 0
__Lstringtext12 0 0 ABS 0
VL53L1X_timeoutMicrosecondsToMclks@timeout_us 20 0 BANK0 1
_I2C1_Poller 93B 0 CODE 0
__pstringtext12 10A9 0 STRCODE 0
__size_of_I2C1_MasterSetIrq 0 0 ABS 0
__Hstringtext8 0 0 ABS 0
__Lstringtext8 0 0 ABS 0
__pstringtext8 105F 0 STRCODE 0
___stacklo 20A4 0 ABS 0
_saved_vhv_timeout CF 0 BANK1 1
___lmul@multiplicand 74 0 COMMON 1
___omul@multiplicand 28 0 BANK0 1
_OSCCON1 919 0 ABS 0
__end_of_I2C1_DO_RX_NACK_RESTART 8CC 0 CODE 0
__Hsfr10 0 0 ABS 0
__Lsfr10 0 0 ABS 0
__Hsfr20 0 0 ABS 0
__Lsfr20 0 0 ABS 0
__Hsfr30 0 0 ABS 0
__Hsfr11 0 0 ABS 0
__Lsfr30 0 0 ABS 0
__Lsfr11 0 0 ABS 0
_OSCCON3 91B 0 ABS 0
__Hsfr21 0 0 ABS 0
__size_of_I2C1_DO_TX_EMPTY 0 0 ABS 0
__HnvBANK1 0 0 ABS 0
__Lsfr21 0 0 ABS 0
__LnvBANK1 0 0 ABS 0
__Hsfr31 0 0 ABS 0
__Hsfr12 0 0 ABS 0
__Lsfr31 0 0 ABS 0
__Lsfr12 0 0 ABS 0
__Hsfr22 0 0 ABS 0
__Lsfr22 0 0 ABS 0
__pnvBANK1 EE 0 BANK1 1
__Hsfr13 0 0 ABS 0
__Lsfr13 0 0 ABS 0
__size_of_rd1RegCompleteHandler 0 0 ABS 0
__Hsfr23 0 0 ABS 0
__Lsfr23 0 0 ABS 0
__Hsfr14 0 0 ABS 0
__Lsfr14 0 0 ABS 0
__Hsfr24 0 0 ABS 0
__Lsfr24 0 0 ABS 0
__Hsfr15 0 0 ABS 0
__Hstringtext15 0 0 ABS 0
__Lsfr15 0 0 ABS 0
__Lstringtext15 0 0 ABS 0
__Hsfr25 0 0 ABS 0
__HnvBANK2 0 0 ABS 0
__Lsfr25 0 0 ABS 0
__LnvBANK2 0 0 ABS 0
__Hsfr16 0 0 ABS 0
__Lsfr16 0 0 ABS 0
__pstringtext15 10D5 0 STRCODE 0
__Hsfr26 0 0 ABS 0
__Lsfr26 0 0 ABS 0
__pnvBANK2 120 0 BANK2 1
__Hsfr17 0 0 ABS 0
__Lsfr17 0 0 ABS 0
__Hsfr27 0 0 ABS 0
__Lsfr27 0 0 ABS 0
__Hsfr18 0 0 ABS 0
__Lsfr18 0 0 ABS 0
__Hsfr28 0 0 ABS 0
_I2C1_DO_RX_NACK_STOP 8C2 0 CODE 0
_SSP1ADD 212 0 ABS 0
__Lsfr28 0 0 ABS 0
__end_of_I2C1_MasterDisableIrq 881 0 CODE 0
__Hsfr19 0 0 ABS 0
__Lsfr19 0 0 ABS 0
__Hsfr29 0 0 ABS 0
__Lsfr29 0 0 ABS 0
_I2C1_DO_IDLE 8A4 0 CODE 0
__size_of_VL53L1X_getMeasurementTimingBudget 0 0 ABS 0
__size_of_VL53L1X_setMeasurementTimingBudget 0 0 ABS 0
__end_of_PWM5_Initialize 92E 0 CODE 0
__size_of_VL53L1X_timeoutMicrosecondsToMclks 0 0 ABS 0
I2C1_Write1ByteRegister@data 2F 0 BANK0 1
_PWM5DCH 618 0 ABS 0
__Hstrings 0 0 ABS 0
_T2CONbits 1F 0 ABS 0
VL53L1X_calcMacroPeriod@vcsel_period_pclks 2D 0 BANK0 1
__Lstrings 0 0 ABS 0
__size_of_I2C1_Write1ByteRegister 0 0 ABS 0
__size_of_I2C1_Write2ByteRegister 0 0 ABS 0
__size_of_I2C1_Write4ByteRegister 0 0 ABS 0
__size_of_I2C1_MasterOperation 0 0 ABS 0
__size_of_PWM5_LoadDutyValue 0 0 ABS 0
_SLRCONA 30C 0 ABS 0
__Hstringtext18 0 0 ABS 0
__Lstringtext18 0 0 ABS 0
_PWM5DCL 617 0 ABS 0
__pstringtext18 0 0 STRCODE 0
_SLRCONC 30E 0 ABS 0
_saved_vhv_init D0 0 BANK1 1
_SSP1BUF 211 0 ABS 0
__size_of_PWM5_Initialize 0 0 ABS 0
_SYSTEM_Initialize 99A 0 CODE 0
I2C1_Write2ByteRegister@data 40 0 BANK0 1
_I2C1_ReadDataBlock DEB 0 CODE 0
_OSCTUNE 91E 0 ABS 0
__size_of_I2C1_DO_RX_NACK_RESTART 0 0 ABS 0
__size_of_VL53L1X_setupManualCalibration 0 0 ABS 0
_PWM5CON 619 0 ABS 0
__size_of_I2C1_SetBuffer 0 0 ABS 0
_calibrated D1 0 BANK1 1
__Hbank0 0 0 ABS 0
__Lbank0 0 0 ABS 0
__Hbank1 0 0 ABS 0
__Lbank1 0 0 ABS 0
__Hbank2 0 0 ABS 0
__Lbank2 0 0 ABS 0
__Hbank3 0 0 ABS 0
__Lbank3 0 0 ABS 0
___latbits 3 0 ABS 0
I2C1_Read1ByteRegister@reg 25 0 BANK0 1
__end_of_I2C1_MasterOperation 27 0 CODE 0
__Hbank4 0 0 ABS 0
__Lbank4 0 0 ABS 0
_I2C1_MasterWrite 8D1 0 CODE 0
__size_of_I2C1_DO_SEND_RESTART_READ 0 0 ABS 0
__end_of___lmul BBF 0 CODE 0
__Hbank5 0 0 ABS 0
__Lbank5 0 0 ABS 0
__Hpowerup 0 0 CODE 0
__Lpowerup 0 0 CODE 0
__Hbank6 0 0 ABS 0
__Lbank6 0 0 ABS 0
__Hbank7 0 0 ABS 0
__Lbank7 0 0 ABS 0
I2C1_Read2ByteRegister@reg 25 0 BANK0 1
__Hbank8 0 0 ABS 0
__Lbank8 0 0 ABS 0
__Hbank9 0 0 ABS 0
__size_of_rd2RegCompleteHandler 0 0 ABS 0
__Lbank9 0 0 ABS 0
I2C1_Write4ByteRegister@data 27 0 BANK0 1
__ptext1 AD3 0 CODE 0
__ptext2 2BA 0 CODE 0
__ptext3 179 0 CODE 0
__ptext4 27 0 CODE 0
__ptext5 971 0 CODE 0
__ptext6 DEB 0 CODE 0
__ptext7 207 0 CODE 0
__HcstackBANK1 0 0 ABS 0
__LcstackBANK1 0 0 ABS 0
__ptext8 649 0 CODE 0
__ptext9 4DE 0 CODE 0
__pcstackBANK1 E6 0 BANK1 1
__Hclrtext 0 0 ABS 0
__Lclrtext 0 0 ABS 0
I2C1_ReadDataBlock@address 2E 0 BANK0 1
__Hstringtext3 0 0 ABS 0
__Lstringtext3 0 0 ABS 0
_SSP1CLKPPS E20 0 ABS 0
__pstringtext3 10FA 0 STRCODE 0
_SSP1DATPPS E21 0 ABS 0
_I2C1_Close A39 0 CODE 0
_VL53L1X_calcMacroPeriod 8C 0 CODE 0
__Hstringtext9 0 0 ABS 0
__end_of__initialization 7FD 0 CODE 0
__Lstringtext9 0 0 ABS 0
__pstringtext9 1073 0 STRCODE 0
__end_of_I2C1_SetCallback A7B 0 CODE 0
?_VL53L1X_encodeTimeout 30 0 BANK0 1
?_VL53L1X_getMeasurementTimingBudget 5C 0 BANK0 1
__end_of_TargetRate 1100 0 STRCODE 0
__end_of_I2C1_MasterEnableRestart 887 0 CODE 0
__end_of_I2C1_ReadDataBlock E3D 0 CODE 0
__size_of_I2C1_DO_ADDRESS_NACK 0 0 ABS 0
__size_of_I2C1_CallbackReturnStop 0 0 ABS 0
_PWMTMRSbits 61F 0 ABS 0
_I2C1_Initialize 907 0 CODE 0
__size_of_I2C1_DO_RX 0 0 ABS 0
__size_of_I2C1_DO_TX 0 0 ABS 0
_TMR2_Initialize 8F7 0 CODE 0
__end_of_I2C1_Write1ByteRegister D0C 0 CODE 0
__end_of_I2C1_Write2ByteRegister E94 0 CODE 0
_PWM5_Initialize 922 0 CODE 0
__end_of_I2C1_Write4ByteRegister 37D 0 CODE 0
VL53L1X_calcMacroPeriod@pll_period_us 28 0 BANK0 1
I2C1_SetBuffer@buffer 70 0 COMMON 1
__end_of___omul DEB 0 CODE 0
__end_of_VL53L1X_readResults 984 0 CODE 0
__Hstack 0 0 STACK 2
__Lstack 0 0 STACK 2
__end_of___lldiv FA0 0 CODE 0
__size_of_I2C1_MasterWaitForEvent 0 0 ABS 0
_I2C1_DO_SEND_RESTART 8B3 0 CODE 0
_ranging_data BE 0 BANK1 1
_I2C1_MasterSendAck 89B 0 CODE 0
__Hspace_0 1102 0 ABS 0
__Lspace_0 0 0 ABS 0
__size_of_VL53L1X_read 0 0 ABS 0
__Hspace_1 124 0 ABS 0
__Lspace_1 0 0 ABS 0
?_VL53L1X_timeoutMclksToMicroseconds 3C 0 BANK0 1
_I2C1_MasterSendNack 897 0 CODE 0
__size_of_VL53L1X_init 0 0 ABS 0
?___lmul 70 0 COMMON 1
__Hspace_2 0 0 ABS 0
_VL53L1X_startContinuous AD3 0 CODE 0
__Lspace_2 0 0 ABS 0
?___omul 20 0 BANK0 1
__Hcinit 800 0 CODE 0
__Lcinit 7F2 0 CODE 0
VL53L1X_encodeTimeout@ls_byte 3A 0 BANK0 1
__end_of_PMD_Initialize 8F7 0 CODE 0
___lldiv F46 0 CODE 0
VL53L1X_encodeTimeout@ms_byte 38 0 BANK0 1
__end_of_I2C1_Open BF9 0 CODE 0
__Hspace_3 0 0 ABS 0
__Lspace_3 0 0 ABS 0
_address EE 0 BANK1 1
__size_of_main 0 0 ABS 0
__size_of_I2C1_DO_IDLE 0 0 ABS 0
__size_of_I2C1_DO_RCEN 0 0 ABS 0
__Hspace_4 10012 0 ABS 0
__end_of_I2C1_DO_ADDRESS_NACK AD3 0 CODE 0
__Lspace_4 0 0 ABS 0
_results D3 0 BANK1 1
I2C1_SetBuffer@bufferSize 72 0 COMMON 1
_PIN_MANAGER_Initialize A7B 0 CODE 0
_I2C1_DO_ADDRESS_NACK AA7 0 CODE 0
__Hstringtext10 0 0 ABS 0
__Lstringtext10 0 0 ABS 0
__pstringtext10 1086 0 STRCODE 0
__Hstringtext4 0 0 ABS 0
VL53L1X_setDistanceMode@budget_us E6 0 BANK1 1
__size_of_VL53L1X_getRangingData 0 0 ABS 0
__Lstringtext4 0 0 ABS 0
__pstringtext4 10FE 0 STRCODE 0
__end_of_VL53L1X_startContinuous B00 0 CODE 0
__size_of_rdBlkRegCompleteHandler 0 0 ABS 0
clear_ram0 8E2 0 CODE 0
__size_of_SYSTEM_Initialize 0 0 ABS 0
__end_of_i2c1_fsmStateTable 1020 0 STRCODE 0
I2C1_Open@returnValue 72 0 COMMON 1
__Hstringtext13 0 0 ABS 0
_I2C1_SetDataCompleteCallback 92E 0 CODE 0
__Lstringtext13 0 0 ABS 0
__pstringtext13 10B8 0 STRCODE 0
_SSP1CON1 215 0 ABS 0
I2C1_CallbackReturnReset@funPtr 79 0 COMMON 1
__Hbank10 0 0 ABS 0
__Lbank10 0 0 ABS 0
__Hbank20 0 0 ABS 0
__Lbank20 0 0 ABS 0
_SSP1CON2 216 0 ABS 0
_I2C1_CallbackReturnStop 874 0 CODE 0
__Hbank30 0 0 BANK30 1
__Hbank11 0 0 ABS 0
__size_of_I2C1_SetAddressNackCallback 0 0 ABS 0
__Lbank30 0 0 BANK30 1
__Lbank11 0 0 ABS 0
__Hbank21 0 0 ABS 0
__Lbank21 0 0 ABS 0
__end_of_OSCILLATOR_Initialize 919 0 CODE 0
__Hbank31 0 0 BANK31 1
__Hbank12 0 0 ABS 0
__Lbank31 0 0 BANK31 1
__Lbank12 0 0 ABS 0
__end_of_SYSTEM_Initialize 9B0 0 CODE 0
__Hbank22 0 0 ABS 0
__Lbank22 0 0 ABS 0
_I2C1_MasterSendTxData 89F 0 CODE 0
__end_of_I2C1_SetBuffer 971 0 CODE 0
VL53L1X_getMeasurementTimingBudget@macro_period_us 64 0 BANK0 1
__Hbank13 0 0 ABS 0
__Lbank13 0 0 ABS 0
_I2C1_DO_RX_ACK 8BD 0 CODE 0
__HbssBANK1 0 0 ABS 0
__LbssBANK1 0 0 ABS 0
__Hbank23 0 0 ABS 0
__Lbank23 0 0 ABS 0
_I2C1_DO_RX C7E 0 CODE 0
_i2c1_fsmStateTable 1000 0 STRCODE 0
__Hbank14 0 0 ABS 0
__pbssBANK1 A0 0 BANK1 1
__Lbank14 0 0 ABS 0
I2C1_SetAddressNackCallback@ptr 77 0 COMMON 1
__Hbank24 0 0 ABS 0
__Lbank24 0 0 ABS 0
__Hstringtext16 0 0 ABS 0
__ptext10 37D 0 CODE 0
__Lstringtext16 0 0 ABS 0
__Hbank15 0 0 ABS 0
__Lbank15 0 0 ABS 0
__end_of_I2C1_DO_SEND_RESTART_WRITE 8B3 0 CODE 0
__ptext20 B8C 0 CODE 0
_I2C1_MasterFsm B00 0 CODE 0
__Hbank25 0 0 ABS 0
__pstringtext16 10E1 0 STRCODE 0
__Lbank25 0 0 ABS 0
VL53L1X_calcMacroPeriod@macro_period_us 2E 0 BANK0 1
__ptext11 C3A 0 CODE 0
__ptext30 8DC 0 CODE 0
__Hbank16 0 0 ABS 0
__Lbank16 0 0 ABS 0
__ptext21 F46 0 CODE 0
__ptext40 8A9 0 CODE 0
__Hbank26 0 0 BANK26 1
__Lbank26 0 0 BANK26 1
_I2C1_MasterOperation 4 0 CODE 0
__ptext12 D55 0 CODE 0
__ptext31 B00 0 CODE 0
__ptext50 89F 0 CODE 0
__Hbank17 0 0 ABS 0
__Lbank17 0 0 ABS 0
__HbssBANK2 0 0 ABS 0
__ptext22 EEC 0 CODE 0
__ptext41 8E8 0 CODE 0
__ptext60 9DC 0 CODE 0
__LbssBANK2 0 0 ABS 0
__Hbank27 0 0 BANK27 1
__Lbank27 0 0 BANK27 1
_I2C1_DO_TX E94 0 CODE 0
__end_of_TargetRate@vl53l1x$F2166 1102 0 STRCODE 0
__ptext13 E3D 0 CODE 0
__ptext32 AA7 0 CODE 0
__ptext51 89B 0 CODE 0
__ptext70 87E 0 CODE 0
__end_of_I2C1_MasterClose 87E 0 CODE 0
__Hbank18 0 0 ABS 0
__pbssBANK2 122 0 BANK2 1
__Lbank18 0 0 ABS 0
__ptext23 D0C 0 CODE 0
__ptext42 C7E 0 CODE 0
__ptext61 9C6 0 CODE 0
__ptext80 907 0 CODE 0
__Hbank28 0 0 BANK28 1
VL53L1X_getMeasurementTimingBudget@range_config_timeout_us 68 0 BANK0 1
__Lbank28 0 0 BANK28 1
I2C1_SetCallback@cb 70 0 COMMON 1
__ptext14 CC5 0 CODE 0
__ptext33 8CC 0 CODE 0
__ptext52 88D 0 CODE 0
__ptext71 87B 0 CODE 0
__end_of_I2C1_MasterWrite 8D6 0 CODE 0
__Hbank19 0 0 ABS 0
__Lbank19 0 0 ABS 0
_PWM5_LoadDutyValue 984 0 CODE 0
__ptext24 955 0 CODE 0
__ptext43 E94 0 CODE 0
__ptext62 9B0 0 CODE 0
__ptext81 984 0 CODE 0
__Hbank29 0 0 BANK29 1
__Lbank29 0 0 BANK29 1
__size_of_PMD_Initialize 0 0 ABS 0
__size_of_I2C1_DO_RESET 0 0 ABS 0
__ptext15 FA0 0 CODE 0
__ptext34 8C7 0 CODE 0
__ptext53 897 0 CODE 0
__ptext72 878 0 CODE 0
__end_of_I2C1_Initialize 910 0 CODE 0
__size_of_I2C1_MasterEnableRestart 0 0 ABS 0
__end_of_I2C1_Close A55 0 CODE 0
__ptext25 BBF 0 CODE 0
__ptext44 8FF 0 CODE 0
__ptext63 92E 0 CODE 0
__ptext16 102 0 CODE 0
__ptext35 8C2 0 CODE 0
__ptext54 88A 0 CODE 0
__ptext73 99A 0 CODE 0
?_VL53L1X_timeoutMicrosecondsToMclks 20 0 BANK0 1
__ptext26 948 0 CODE 0
__ptext45 919 0 CODE 0
__ptext64 A55 0 CODE 0
_I2C1_MasterStop 887 0 CODE 0
VL53L1X_setDistanceMode@mode EA 0 BANK1 1
__ptext17 D9F 0 CODE 0
__ptext36 8BD 0 CODE 0
__ptext55 876 0 CODE 0
__ptext74 893 0 CODE 0
__end_of_rdBlkRegCompleteHandler A39 0 CODE 0
__ptext27 8D1 0 CODE 0
__ptext46 8A4 0 CODE 0
__ptext65 962 0 CODE 0
I2C1_SetCallback@idx 74 0 COMMON 1
I2C1_SetCallback@ptr 72 0 COMMON 1
__ptext18 B5D 0 CODE 0
__ptext37 8B8 0 CODE 0
__ptext56 874 0 CODE 0
__ptext75 8F7 0 CODE 0
_I2C1_DO_RX_NACK_RESTART 8C7 0 CODE 0
__ptext28 4 0 CODE 0
__ptext47 B2E 0 CODE 0
__ptext66 887 0 CODE 0
_I2C1_DO_SEND_RESTART_WRITE 8AE 0 CODE 0
__ptext19 8C 0 CODE 0
__ptext38 8B3 0 CODE 0
__ptext57 A1E 0 CODE 0
__ptext76 922 0 CODE 0
_I2C1_MasterDisableIrq 87E 0 CODE 0
__ptext29 93B 0 CODE 0
__ptext48 890 0 CODE 0
__ptext67 884 0 CODE 0
__ptext39 8AE 0 CODE 0
__ptext58 A08 0 CODE 0
__ptext77 8EF 0 CODE 0
VL53L1X_setMeasurementTimingBudget@macro_period_us 57 0 BANK0 1
__ptext49 8D6 0 CODE 0
__ptext68 881 0 CODE 0
_I2C1_Status A0 0 BANK1 1
__ptext59 9F2 0 CODE 0
__ptext78 A7B 0 CODE 0
__ptext69 A39 0 CODE 0
__Hend_init 4 0 CODE 0
__Lend_init 2 0 CODE 0
?_VL53L1X_calcMacroPeriod 20 0 BANK0 1
__ptext79 910 0 CODE 0
__end_of_rd1RegCompleteHandler 9DC 0 CODE 0
VL53L1X_encodeTimeout@timeout_mclks 30 0 BANK0 1
__end_of_I2C1_MasterIsNack 8DC 0 CODE 0
___lldiv@divisor 70 0 COMMON 1
__size_of___lldiv 0 0 ABS 0
_PMD_Initialize 8EF 0 CODE 0
_WDT_Initialize 893 0 CODE 0
?_I2C1_Read2ByteRegister 25 0 BANK0 1
VL53L1X_setMeasurementTimingBudget@range_config_timeout_us 53 0 BANK0 1
_I2C1_Read1ByteRegister D0C 0 CODE 0
__end_of_I2C1_MasterStart 884 0 CODE 0
_OSCILLATOR_Initialize 910 0 CODE 0
I2C1_Read1ByteRegister@address 2B 0 BANK0 1
__Hreset_vec 2 0 CODE 0
__Lreset_vec 0 0 CODE 0
__size_of_PIN_MANAGER_Initialize 0 0 ABS 0
I2C1_Write1ByteRegister@address 34 0 BANK0 1
__end_of_I2C1_DO_SEND_ADR_WRITE 907 0 CODE 0
_I2C1_Read2ByteRegister EEC 0 CODE 0
__end_of_rd2RegCompleteHandler 9F2 0 CODE 0
__Hstringtext5 0 0 ABS 0
I2C1_Read2ByteRegister@address 2B 0 BANK0 1
__Lstringtext5 0 0 ABS 0
__pstringtext5 1100 0 STRCODE 0
__end_of_I2C1_MasterClearIrq 87B 0 CODE 0
_did_timeout D2 0 BANK1 1
VL53L1X_timeoutMclksToMicroseconds@timeout_mclks 3C 0 BANK0 1
__end_of_I2C1_SetDataCompleteCallback 93B 0 CODE 0
I2C1_Write2ByteRegister@address 46 0 BANK0 1
__size_of_VL53L1X_decodeTimeout 0 0 ABS 0
__end_of_VL53L1X_read 207 0 CODE 0
__size_of_VL53L1X_encodeTimeout 0 0 ABS 0
VL53L1X_getRangingData@range 7C 0 COMMON 1
__end_of_VL53L1X_init 7F2 0 CODE 0
__end_of_VL53L1X_timeoutMicrosecondsToMclks C7E 0 CODE 0
intlevel0 0 0 ENTRY 0
__end_of_I2C1_DO_SEND_STOP 8BD 0 CODE 0
_VL53L1X_decodeTimeout B5D 0 CODE 0
__size_of_I2C1_Poller 0 0 ABS 0
_SSP1STAT 214 0 ABS 0
intlevel1 0 0 ENTRY 0
__size_of_I2C1_MasterOpen 0 0 ABS 0
__end_of_I2C1_MasterSendAck 89F 0 CODE 0
intlevel2 0 0 ENTRY 0
intlevel3 0 0 ENTRY 0
__size_of___lmul 0 0 ABS 0
intlevel4 0 0 ENTRY 0
__size_of_I2C1_Close 0 0 ABS 0
__end_of_VL53L1X_getRangingData 2BA 0 CODE 0
_SSP1CON1bits 215 0 ABS 0
intlevel5 0 0 ENTRY 0
__size_of_WDT_Initialize 0 0 ABS 0
_SSP1CON2bits 216 0 ABS 0
__end_of_I2C1_MasterFsm B2E 0 CODE 0
I2C1_Write4ByteRegister@address 43 0 BANK0 1
__size_of_I2C1_MasterSendTxData 0 0 ABS 0
_VL53L1X_getRangingData 207 0 CODE 0
__size_of_I2C1_DO_SEND_RESTART_WRITE 0 0 ABS 0
__end_of_I2C1_MasterGetRxData 890 0 CODE 0
VL53L1X_timeoutMclksToMicroseconds@macro_period_us 40 0 BANK0 1
_I2C1_MasterOpen 948 0 CODE 0
__size_of_I2C1_MasterStop 0 0 ABS 0
_VL53L1X_init 649 0 CODE 0
__HcstackCOMMON 0 0 ABS 0
__LcstackCOMMON 0 0 ABS 0
__end_of_I2C1_MasterSetIrq 893 0 CODE 0
__pcstackCOMMON 70 0 COMMON 1
start_initialization 7F2 0 CODE 0
___lldiv@quotient 79 0 COMMON 1
I2C1_Read1ByteRegister@returnValue 2C 0 BANK0 1
__size_of_I2C1_DO_RX_ACK 0 0 ABS 0
__size_of_I2C1_DO_SEND_ADR_WRITE 0 0 ABS 0
_I2C1_DO_RCEN 8E8 0 CODE 0
I2C1_Read2ByteRegister@returnValue 2C 0 BANK0 1
__Hmaintext 0 0 ABS 0
__Lmaintext 0 0 ABS 0
__pmaintext BF9 0 CODE 0
__size_of_OSCILLATOR_Initialize 0 0 ABS 0
__size_of_VL53L1X_timeoutMclksToMicroseconds 0 0 ABS 0
I2C1_ReadDataBlock@bufferBlock 2F 0 BANK0 1
__initialization 7F2 0 CODE 0
__end_of_VL53L1X_decodeTimeout B8C 0 CODE 0
__end_of_VL53L1X_encodeTimeout D9F 0 CODE 0
__size_of_I2C1_CallbackReturnReset 0 0 ABS 0
__size_of_TMR2_Initialize 0 0 ABS 0
__end_of_I2C1_DO_SEND_ADR_READ 922 0 CODE 0
_VL53L1X_timeoutMclksToMicroseconds 102 0 CODE 0
_I2C1_SetAddressNackCallback 955 0 CODE 0
__end_of_I2C1_Read1ByteRegister D55 0 CODE 0
__end_of_I2C1_Read2ByteRegister F46 0 CODE 0
__size_of_I2C1_Read1ByteRegister 0 0 ABS 0
__size_of_I2C1_MasterClose 0 0 ABS 0
__size_of_I2C1_Read2ByteRegister 0 0 ABS 0
__size_of_VL53L1X_startContinuous 0 0 ABS 0
___lmul@product 78 0 COMMON 1
___omul@product 71 0 COMMON 1
I2C1_Close@returnValue 71 0 COMMON 1
__Hstringtext11 0 0 ABS 0
__Lstringtext11 0 0 ABS 0
__size_of_I2C1_MasterWrite 0 0 ABS 0
__end_of_VL53L1X_timeoutMclksToMicroseconds 179 0 CODE 0
__size_of_I2C1_DO_SEND_STOP 0 0 ABS 0
__end_of_VL53L1X_setupManualCalibration 8C 0 CODE 0
__end_of_I2C1_DO_RX_NACK_STOP 8C7 0 CODE 0
__pstringtext11 1098 0 STRCODE 0
__Hstringtext6 0 0 ABS 0
__Lstringtext6 0 0 ABS 0
__pstringtext6 1020 0 STRCODE 0
I2C1_SetDataCompleteCallback@ptr 77 0 COMMON 1
__end_of_VL53L1X_calcMacroPeriod 102 0 CODE 0
___lldiv@dividend 74 0 COMMON 1
%segments
reset_vec 0 4D CODE 0 0
cinit FE4 FFF CODE FE4 0
cstackCOMMON 70 7D COMMON 70 1
cstackBANK0 20 6F BANK0 20 1
bssBANK1 A0 EE BANK1 A0 1
nvBANK2 120 123 BANK2 120 1
text8 C92 FE3 CODE C92 0
text9 9BC C91 CODE 9BC 0
text10 6FA 9BB CODE 6FA 0
text2 574 6F9 CODE 574 0
text7 40E 573 CODE 40E 0
text3 2F2 40D CODE 2F2 0
text16 204 2F1 CODE 204 0
text19 118 203 CODE 118 0
text4 4E 117 CODE 4E 0
text15 1F40 1FFF CODE 1F40 0
text21 1E8C 1F3F CODE 1E8C 0
text22 1DD8 1E8B CODE 1DD8 0
text43 1D28 1DD7 CODE 1D28 0
text13 1C7A 1D27 CODE 1C7A 0
text6 1BD6 1C79 CODE 1BD6 0
text17 1B3E 1BD5 CODE 1B3E 0
text12 1AAA 1B3D CODE 1AAA 0
text23 1A18 1AA9 CODE 1A18 0
text14 198A 1A17 CODE 198A 0
text42 18FC 1989 CODE 18FC 0
text11 1874 18FB CODE 1874 0
maintext 17F2 1873 CODE 17F2 0
text25 177E 17F1 CODE 177E 0
text20 1718 177D CODE 1718 0
text18 16BA 1717 CODE 16BA 0
text47 165C 16B9 CODE 165C 0
text31 1600 165B CODE 1600 0
text1 15A6 15FF CODE 15A6 0
text32 154E 15A5 CODE 154E 0
text78 14F6 154D CODE 14F6 0
text64 14AA 14F5 CODE 14AA 0
stringtext1 2000 2203 STRCODE 2000 0
text69 1472 14A9 CODE 1472 0
text57 143C 1471 CODE 143C 0
text58 1410 143B CODE 1410 0
text59 13E4 140F CODE 13E4 0
text60 13B8 13E3 CODE 13B8 0
text61 138C 13B7 CODE 138C 0
text62 1360 138B CODE 1360 0
text73 1334 135F CODE 1334 0
text81 1308 1333 CODE 1308 0
text5 12E2 1307 CODE 12E2 0
text65 12C4 12E1 CODE 12C4 0
text24 12AA 12C3 CODE 12AA 0
text26 1290 12A9 CODE 1290 0
text29 1276 128F CODE 1276 0
text63 125C 1275 CODE 125C 0
text76 1244 125B CODE 1244 0
text45 1232 1243 CODE 1232 0
text79 1220 1231 CODE 1220 0
text80 120E 121F CODE 120E 0
text44 11FE 120D CODE 11FE 0
text75 11EE 11FD CODE 11EE 0
text77 11DE 11ED CODE 11DE 0
text41 11D0 11DD CODE 11D0 0
clrtext 11C4 11CF CODE 11C4 0
text30 11B8 11C3 CODE 11B8 0
text49 11AC 11B7 CODE 11AC 0
text27 11A2 11AB CODE 11A2 0
text33 1198 11A1 CODE 1198 0
text34 118E 1197 CODE 118E 0
text35 1184 118D CODE 1184 0
text36 117A 1183 CODE 117A 0
text37 1170 1179 CODE 1170 0
text38 1166 116F CODE 1166 0
text39 115C 1165 CODE 115C 0
text40 1152 115B CODE 1152 0
text46 1148 1151 CODE 1148 0
text50 113E 1147 CODE 113E 0
text51 1136 113D CODE 1136 0
text53 112E 1135 CODE 112E 0
text74 1126 112D CODE 1126 0
text48 1120 1125 CODE 1120 0
text52 111A 111F CODE 111A 0
text54 1114 1119 CODE 1114 0
text66 110E 1113 CODE 110E 0
text67 1108 110D CODE 1108 0
text68 1102 1107 CODE 1102 0
text70 10FC 1101 CODE 10FC 0
text71 10F6 10FB CODE 10F6 0
text72 10F0 10F5 CODE 10F0 0
text55 10EC 10EF CODE 10EC 0
text56 10E8 10EB CODE 10E8 0
%locals
dist/default/production\TOF_I2C.X.production.o
C:\Users\anis\AppData\Local\Temp\s2bfgx.s
6184 7F2 0 CODE 0
6187 7F2 0 CODE 0
6250 7F2 0 CODE 0
6251 7F3 0 CODE 0
6252 7F4 0 CODE 0
6253 7F5 0 CODE 0
6254 7F6 0 CODE 0
6255 7F7 0 CODE 0
6259 7FA 0 CODE 0
6260 7FB 0 CODE 0
6261 7FC 0 CODE 0
6267 7FD 0 CODE 0
6269 7FD 0 CODE 0
6270 7FE 0 CODE 0
6239 8E2 0 CODE 0
6240 8E2 0 CODE 0
6241 8E3 0 CODE 0
6242 8E3 0 CODE 0
6243 8E4 0 CODE 0
6244 8E5 0 CODE 0
6245 8E6 0 CODE 0
6246 8E7 0 CODE 0
main.c
51 BF9 0 CODE 0
54 BF9 0 CODE 0
70 BFC 0 CODE 0
71 BFF 0 CODE 0
75 C0B 0 CODE 0
76 C14 0 CODE 0
77 C1F 0 CODE 0
79 C28 0 CODE 0
80 C2F 0 CODE 0
83 C30 0 CODE 0
vl53l1x.c
288 AD3 0 CODE 0
292 AD3 0 CODE 0
294 AE5 0 CODE 0
295 AF1 0 CODE 0
296 AFF 0 CODE 0
mcc_generated_files/examples/i2c1_master_example.c
117 2BA 0 CODE 0
119 2BC 0 CODE 0
120 2C6 0 CODE 0
121 343 0 CODE 0
122 34E 0 CODE 0
123 35F 0 CODE 0
124 36A 0 CODE 0
125 371 0 CODE 0
126 374 0 CODE 0
127 37C 0 CODE 0
vl53l1x.c
329 179 0 CODE 0
333 179 0 CODE 0
335 17C 0 CODE 0
336 196 0 CODE 0
337 1B0 0 CODE 0
338 1CA 0 CODE 0
340 1E4 0 CODE 0
342 1E9 0 CODE 0
343 1EC 0 CODE 0
348 1EF 0 CODE 0
350 1F2 0 CODE 0
353 1FE 0 CODE 0
354 206 0 CODE 0
430 27 0 CODE 0
433 27 0 CODE 0
434 36 0 CODE 0
437 45 0 CODE 0
440 56 0 CODE 0
444 68 0 CODE 0
445 74 0 CODE 0
446 8B 0 CODE 0
449 971 0 CODE 0
451 971 0 CODE 0
452 983 0 CODE 0
mcc_generated_files/examples/i2c1_master_example.c
129 DEB 0 CODE 0
132 DED 0 CODE 0
133 DF4 0 CODE 0
135 DF8 0 CODE 0
136 E02 0 CODE 0
137 E0E 0 CODE 0
138 E1F 0 CODE 0
139 E2A 0 CODE 0
140 E31 0 CODE 0
141 E34 0 CODE 0
142 E3C 0 CODE 0
vl53l1x.c
502 207 0 CODE 0
506 207 0 CODE 0
512 20C 0 CODE 0
518 23D 0 CODE 0
522 23E 0 CODE 0
525 23E 0 CODE 0
526 243 0 CODE 0
530 244 0 CODE 0
531 249 0 CODE 0
534 24A 0 CODE 0
535 24F 0 CODE 0
538 250 0 CODE 0
539 255 0 CODE 0
542 256 0 CODE 0
543 25B 0 CODE 0
545 25C 0 CODE 0
546 25C 0 CODE 0
547 25F 0 CODE 0
550 260 0 CODE 0
551 265 0 CODE 0
554 266 0 CODE 0
555 26B 0 CODE 0
558 26C 0 CODE 0
559 271 0 CODE 0
563 272 0 CODE 0
565 278 0 CODE 0
566 27E 0 CODE 0
569 27F 0 CODE 0
574 281 0 CODE 0
575 286 0 CODE 0
578 2B9 0 CODE 0
26 649 0 CODE 0
28 649 0 CODE 0
30 64F 0 CODE 0
35 661 0 CODE 0
36 66B 0 CODE 0
37 66F 0 CODE 0
41 67A 0 CODE 0
47 687 0 CODE 0
48 699 0 CODE 0
./vl53l1x.h
1337 6AB 0 CODE 0
vl53l1x.c
72 6B9 0 CODE 0
73 6C7 0 CODE 0
74 6D5 0 CODE 0
75 6E3 0 CODE 0
76 6EF 0 CODE 0
77 6FD 0 CODE 0
78 708 0 CODE 0
81 716 0 CODE 0
82 723 0 CODE 0
83 730 0 CODE 0
88 73E 0 CODE 0
89 74C 0 CODE 0
93 75A 0 CODE 0
94 766 0 CODE 0
95 772 0 CODE 0
103 780 0 CODE 0
104 78B 0 CODE 0
107 797 0 CODE 0
108 7A5 0 CODE 0
109 7B3 0 CODE 0
115 7C1 0 CODE 0
116 7C5 0 CODE 0
122 7D1 0 CODE 0
126 7F1 0 CODE 0
135 4DE 0 CODE 0
138 4E0 0 CODE 0
140 4F3 0 CODE 0
146 4F4 0 CODE 0
147 501 0 CODE 0
148 50F 0 CODE 0
151 51D 0 CODE 0
152 52B 0 CODE 0
153 539 0 CODE 0
154 547 0 CODE 0
156 555 0 CODE 0
162 556 0 CODE 0
163 563 0 CODE 0
164 571 0 CODE 0
167 57F 0 CODE 0
168 58D 0 CODE 0
169 59B 0 CODE 0
170 5A9 0 CODE 0
172 5B7 0 CODE 0
178 5B8 0 CODE 0
179 5C5 0 CODE 0
180 5D3 0 CODE 0
183 5E1 0 CODE 0
184 5EF 0 CODE 0
185 5FD 0 CODE 0
186 60B 0 CODE 0
188 619 0 CODE 0
193 61A 0 CODE 0
196 62E 0 CODE 0
199 641 0 CODE 0
202 648 0 CODE 0
208 37D 0 CODE 0
212 37D 0 CODE 0
./vl53l1x.h
1333 38D 0 CODE 0
vl53l1x.c
215 3A6 0 CODE 0
217 3B4 0 CODE 0
224 3BC 0 CODE 0
229 3D1 0 CODE 0
230 3ED 0 CODE 0
231 402 0 CODE 0
240 410 0 CODE 0
244 43E 0 CODE 0
248 46C 0 CODE 0
252 482 0 CODE 0
256 4AF 0 CODE 0
262 4DD 0 CODE 0
622 C3A 0 CODE 0
624 C3A 0 CODE 0
625 C7D 0 CODE 0
589 D55 0 CODE 0
593 D55 0 CODE 0
594 D55 0 CODE 0
596 D58 0 CODE 0
598 D60 0 CODE 0
600 D6C 0 CODE 0
602 D6D 0 CODE 0
603 D74 0 CODE 0
600 D78 0 CODE 0
606 D8C 0 CODE 0
608 D9C 0 CODE 0
609 D9E 0 CODE 0
mcc_generated_files/examples/i2c1_master_example.c
105 E3D 0 CODE 0
107 E3F 0 CODE 0
108 E49 0 CODE 0
109 E5A 0 CODE 0
110 E65 0 CODE 0
111 E76 0 CODE 0
112 E81 0 CODE 0
113 E88 0 CODE 0
114 E8B 0 CODE 0
115 E93 0 CODE 0
94 CC5 0 CODE 0
96 CC7 0 CODE 0
97 CD1 0 CODE 0
98 CDD 0 CODE 0
99 CEE 0 CODE 0
100 CF9 0 CODE 0
101 D00 0 CODE 0
102 D03 0 CODE 0
103 D0B 0 CODE 0
vl53l1x.c
266 FA0 0 CODE 0
274 FA0 0 CODE 0
278 FB6 0 CODE 0
./vl53l1x.h
1333 FE4 0 CODE 0
vl53l1x.c
284 FFF 0 CODE 0
614 102 0 CODE 0
616 102 0 CODE 0
617 178 0 CODE 0
C:\Program Files\Microchip\xc8\v2.30\pic\sources\c99\common\Umul64.c
91 D9F 0 CODE 0
333 D9F 0 CODE 0
335 DA9 0 CODE 0
336 DAE 0 CODE 0
337 DBE 0 CODE 0
338 DC6 0 CODE 0
339 DCE 0 CODE 0
353 DDA 0 CODE 0
354 DEA 0 CODE 0
vl53l1x.c
582 B5D 0 CODE 0
584 B5D 0 CODE 0
585 B8B 0 CODE 0
630 8C 0 CODE 0
634 8E 0 CODE 0
637 A9 0 CODE 0
640 AE 0 CODE 0
641 CA 0 CODE 0
642 D1 0 CODE 0
643 F2 0 CODE 0
645 F9 0 CODE 0
646 101 0 CODE 0
C:\Program Files\Microchip\xc8\v2.30\pic\sources\c99\common\Umul32.c
15 B8C 0 CODE 0
119 B8C 0 CODE 0
121 B94 0 CODE 0
122 B98 0 CODE 0
123 BA0 0 CODE 0
124 BA7 0 CODE 0
125 BAE 0 CODE 0
128 BB6 0 CODE 0
129 BBE 0 CODE 0
C:\Program Files\Microchip\xc8\v2.30\pic\sources\c99\common\__lldiv.c
5 F46 0 CODE 0
13 F46 0 CODE 0
14 F4E 0 CODE 0
15 F56 0 CODE 0
16 F58 0 CODE 0
17 F59 0 CODE 0
18 F60 0 CODE 0
16 F64 0 CODE 0
21 F68 0 CODE 0
22 F6F 0 CODE 0
23 F81 0 CODE 0
24 F89 0 CODE 0
26 F8A 0 CODE 0
27 F91 0 CODE 0
29 F97 0 CODE 0
30 F9F 0 CODE 0
mcc_generated_files/examples/i2c1_master_example.c
79 EEC 0 CODE 0
81 EEE 0 CODE 0
83 EF0 0 CODE 0
84 EFA 0 CODE 0
85 F06 0 CODE 0
86 F17 0 CODE 0
87 F22 0 CODE 0
88 F29 0 CODE 0
89 F2C 0 CODE 0
91 F34 0 CODE 0
92 F45 0 CODE 0
64 D0C 0 CODE 0
66 D0E 0 CODE 0
67 D0F 0 CODE 0
68 D1F 0 CODE 0
69 D29 0 CODE 0
71 D35 0 CODE 0
72 D40 0 CODE 0
73 D47 0 CODE 0
74 D4A 0 CODE 0
76 D52 0 CODE 0
77 D54 0 CODE 0
mcc_generated_files/i2c1_master.c
283 955 0 CODE 0
285 955 0 CODE 0
286 961 0 CODE 0
176 BBF 0 CODE 0
178 BC0 0 CODE 0
180 BC2 0 CODE 0
182 BC7 0 CODE 0
183 BCB 0 CODE 0
184 BCC 0 CODE 0
185 BCD 0 CODE 0
186 BCE 0 CODE 0
187 BD2 0 CODE 0
188 BD6 0 CODE 0
191 BD7 0 CODE 0
192 BDB 0 CODE 0
193 BDC 0 CODE 0
194 BE0 0 CODE 0
195 BE1 0 CODE 0
196 BE5 0 CODE 0
197 BE6 0 CODE 0
198 BEA 0 CODE 0
199 BEB 0 CODE 0
200 BEF 0 CODE 0
202 BF0 0 CODE 0
203 BF3 0 CODE 0
204 BF6 0 CODE 0
205 BF7 0 CODE 0
206 BF7 0 CODE 0
207 BF8 0 CODE 0
543 948 0 CODE 0
545 948 0 CODE 0
547 94D 0 CODE 0
548 94E 0 CODE 0
549 950 0 CODE 0
550 951 0 CODE 0
551 953 0 CODE 0
555 954 0 CODE 0
251 8D1 0 CODE 0
253 8D1 0 CODE 0
254 8D5 0 CODE 0
224 4 0 CODE 0
226 6 0 CODE 0
227 8 0 CODE 0
229 D 0 CODE 0
230 E 0 CODE 0
232 10 0 CODE 0
234 15 0 CODE 0
235 18 0 CODE 0
238 19 0 CODE 0
240 1E 0 CODE 0
241 21 0 CODE 0
243 24 0 CODE 0
244 26 0 CODE 0
312 93B 0 CODE 0
314 93B 0 CODE 0
316 93C 0 CODE 0
317 93F 0 CODE 0
314 942 0 CODE 0
319 947 0 CODE 0
650 8DC 0 CODE 0
652 8DC 0 CODE 0
654 8DC 0 CODE 0
659 8E1 0 CODE 0
321 B00 0 CODE 0
323 B00 0 CODE 0
325 B03 0 CODE 0
327 B10 0 CODE 0
329 B16 0 CODE 0
330 B2D 0 CODE 0
500 AA7 0 CODE 0
502 AA7 0 CODE 0
503 AA9 0 CODE 0
504 AAD 0 CODE 0
508 AAE 0 CODE 0
510 AB2 0 CODE 0
511 AB6 0 CODE 0
512 AD2 0 CODE 0
494 8CC 0 CODE 0
496 8CC 0 CODE 0
497 8CE 0 CODE 0
498 8CF 0 CODE 0
499 8D0 0 CODE 0
488 8C7 0 CODE 0
490 8C7 0 CODE 0
491 8CA 0 CODE 0
492 8CB 0 CODE 0
482 8C2 0 CODE 0
484 8C2 0 CODE 0
485 8C5 0 CODE 0
486 8C6 0 CODE 0
475 8BD 0 CODE 0
477 8BD 0 CODE 0
478 8C0 0 CODE 0
479 8C1 0 CODE 0
469 8B8 0 CODE 0
471 8B8 0 CODE 0
472 8BB 0 CODE 0
473 8BC 0 CODE 0
463 8B3 0 CODE 0
465 8B3 0 CODE 0
466 8B6 0 CODE 0
467 8B7 0 CODE 0
456 8AE 0 CODE 0
458 8AE 0 CODE 0
459 8B1 0 CODE 0
460 8B2 0 CODE 0
450 8A9 0 CODE 0
452 8A9 0 CODE 0
453 8AC 0 CODE 0
454 8AD 0 CODE 0
402 8E8 0 CODE 0
404 8E8 0 CODE 0
405 8EA 0 CODE 0
406 8ED 0 CODE 0
407 8EE 0 CODE 0
378 C7E 0 CODE 0
380 C7E 0 CODE 0
381 C8D 0 CODE 0
383 C97 0 CODE 0
384 C9A 0 CODE 0
386 C9C 0 CODE 0
388 C9C 0 CODE 0
389 C9D 0 CODE 0
393 C9E 0 CODE 0
397 CA2 0 CODE 0
398 CA6 0 CODE 0
400 CC4 0 CODE 0
354 E94 0 CODE 0
356 E94 0 CODE 0
361 E9D 0 CODE 0
363 EA1 0 CODE 0
367 EA5 0 CODE 0
368 EA9 0 CODE 0
370 ECC 0 CODE 0
372 ECC 0 CODE 0
373 ECE 0 CODE 0
374 EDD 0 CODE 0
376 EEB 0 CODE 0
347 8FF 0 CODE 0
349 8FF 0 CODE 0
350 901 0 CODE 0
351 905 0 CODE 0
352 906 0 CODE 0
340 919 0 CODE 0
342 919 0 CODE 0
343 91B 0 CODE 0
344 920 0 CODE 0
345 921 0 CODE 0
333 8A4 0 CODE 0
335 8A4 0 CODE 0
336 8A6 0 CODE 0
337 8A7 0 CODE 0
338 8A8 0 CODE 0
409 B2E 0 CODE 0
411 B2E 0 CODE 0
412 B30 0 CODE 0
416 B31 0 CODE 0
418 B35 0 CODE 0
419 B38 0 CODE 0
422 B3A 0 CODE 0
423 B3E 0 CODE 0
424 B5C 0 CODE 0
645 890 0 CODE 0
647 890 0 CODE 0
648 892 0 CODE 0
598 8D6 0 CODE 0
600 8D6 0 CODE 0
601 8DB 0 CODE 0
568 89F 0 CODE 0
570 8A0 0 CODE 0
571 8A3 0 CODE 0
603 89B 0 CODE 0
605 89B 0 CODE 0
606 89D 0 CODE 0
607 89E 0 CODE 0
563 88D 0 CODE 0
565 88D 0 CODE 0
566 88F 0 CODE 0
609 897 0 CODE 0
611 897 0 CODE 0
612 899 0 CODE 0
613 89A 0 CODE 0
583 88A 0 CODE 0
585 88A 0 CODE 0
586 88C 0 CODE 0
525 876 0 CODE 0
527 876 0 CODE 0
528 877 0 CODE 0
520 874 0 CODE 0
522 874 0 CODE 0
523 875 0 CODE 0
mcc_generated_files/examples/i2c1_master_example.c
179 A1E 0 CODE 0
181 A1E 0 CODE 0
182 A30 0 CODE 0
183 A37 0 CODE 0
184 A38 0 CODE 0
165 A08 0 CODE 0
167 A08 0 CODE 0
168 A15 0 CODE 0
169 A1C 0 CODE 0
170 A1D 0 CODE 0
158 9F2 0 CODE 0
160 9F2 0 CODE 0
161 9FF 0 CODE 0
162 A06 0 CODE 0
163 A07 0 CODE 0
151 9DC 0 CODE 0
153 9DC 0 CODE 0
154 9E9 0 CODE 0
155 9F0 0 CODE 0
156 9F1 0 CODE 0
144 9C6 0 CODE 0
146 9C6 0 CODE 0
147 9D3 0 CODE 0
148 9DA 0 CODE 0
149 9DB 0 CODE 0
172 9B0 0 CODE 0
174 9B0 0 CODE 0
175 9BD 0 CODE 0
176 9C4 0 CODE 0
177 9C5 0 CODE 0
mcc_generated_files/i2c1_master.c
273 92E 0 CODE 0
275 92E 0 CODE 0
276 93A 0 CODE 0
298 A55 0 CODE 0
300 A56 0 CODE 0
302 A5C 0 CODE 0
303 A64 0 CODE 0
304 A6C 0 CODE 0
307 A6D 0 CODE 0
308 A75 0 CODE 0
310 A7A 0 CODE 0
263 962 0 CODE 0
265 962 0 CODE 0
267 967 0 CODE 0
268 96B 0 CODE 0
269 96F 0 CODE 0
271 970 0 CODE 0
593 887 0 CODE 0
595 887 0 CODE 0
596 889 0 CODE 0
573 884 0 CODE 0
575 884 0 CODE 0
576 886 0 CODE 0
588 881 0 CODE 0
590 881 0 CODE 0
591 883 0 CODE 0
209 A39 0 CODE 0
211 A39 0 CODE 0
212 A3B 0 CODE 0
214 A40 0 CODE 0
215 A41 0 CODE 0
216 A45 0 CODE 0
217 A48 0 CODE 0
218 A4B 0 CODE 0
219 A4E 0 CODE 0
221 A53 0 CODE 0
222 A54 0 CODE 0
635 87E 0 CODE 0
637 87E 0 CODE 0
638 880 0 CODE 0
557 87B 0 CODE 0
560 87B 0 CODE 0
561 87D 0 CODE 0
640 878 0 CODE 0
642 878 0 CODE 0
643 87A 0 CODE 0
mcc_generated_files/mcc.c
50 99A 0 CODE 0
53 99A 0 CODE 0
54 99D 0 CODE 0
55 9A0 0 CODE 0
56 9A3 0 CODE 0
57 9A6 0 CODE 0
58 9A9 0 CODE 0
59 9AC 0 CODE 0
60 9AF 0 CODE 0
76 893 0 CODE 0
79 893 0 CODE 0
80 896 0 CODE 0
mcc_generated_files/tmr2.c
62 8F7 0 CODE 0
67 8F7 0 CODE 0
70 8FA 0 CODE 0
73 8FB 0 CODE 0
76 8FC 0 CODE 0
77 8FE 0 CODE 0
mcc_generated_files/pwm5.c
58 922 0 CODE 0
62 922 0 CODE 0
65 925 0 CODE 0
68 927 0 CODE 0
71 929 0 CODE 0
72 92D 0 CODE 0
mcc_generated_files/mcc.c
82 8EF 0 CODE 0
85 8EF 0 CODE 0
87 8F1 0 CODE 0
89 8F2 0 CODE 0
91 8F3 0 CODE 0
93 8F4 0 CODE 0
95 8F5 0 CODE 0
96 8F6 0 CODE 0
mcc_generated_files/pin_manager.c
55 A7B 0 CODE 0
60 A7B 0 CODE 0
61 A7D 0 CODE 0
66 A7E 0 CODE 0
67 A81 0 CODE 0
72 A83 0 CODE 0
73 A86 0 CODE 0
78 A88 0 CODE 0
79 A8A 0 CODE 0
84 A8B 0 CODE 0
85 A8D 0 CODE 0
90 A8E 0 CODE 0
91 A91 0 CODE 0
96 A93 0 CODE 0
97 A96 0 CODE 0
106 A98 0 CODE 0
107 A9B 0 CODE 0
108 A9E 0 CODE 0
109 AA1 0 CODE 0
110 AA3 0 CODE 0
111 AA6 0 CODE 0
mcc_generated_files/mcc.c
62 910 0 CODE 0
65 910 0 CODE 0
67 913 0 CODE 0
69 914 0 CODE 0
71 915 0 CODE 0
73 917 0 CODE 0
74 918 0 CODE 0
mcc_generated_files/i2c1_master.c
167 907 0 CODE 0
169 907 0 CODE 0
170 909 0 CODE 0
171 90B 0 CODE 0
172 90C 0 CODE 0
173 90E 0 CODE 0
174 90F 0 CODE 0
mcc_generated_files/pwm5.c
74 984 0 CODE 0
77 984 0 CODE 0
80 98F 0 CODE 0
81 999 0 CODE 0
